# device: Atmel maXTouch Touchpad
# bit: 0B 00 00 00 00 00 00 00
# key: 00 00 00 00 00 00 00 00 00 00 00 00 00 00 00 00 00 00 00 00 00 00 00 00 00 00 00 00 00 00 00 00 00 00 01 00 00 00 00 00 20 E5 00 00 00 00 00 00 00 00 00 00 00 00 00 00 00 00 00 00 00 00 00 00 00 00 00 00 00 00 00 00 00 00 00 00 00 00 00 00 00 00 00 00 00 00 00 00 00 00 00 00 00 00 00 00
# rel: 00 00 00 00 00 00 00 00
# abs: 03 00 00 01 00 80 71 06
# led: 00 00 00 00 00 00 00 00
# prp: 05 00 00 00 00 00 00 00
# absinfo: 0 0 2040 0 0 20
# absinfo: 1 0 1360 0 0 20
# absinfo: 24 0 255 0 0 0
# absinfo: 47 0 9 0 0 0
# absinfo: 48 0 1878 0 0 0
# absinfo: 52 -3 4 0 0 0
# absinfo: 53 0 2040 0 0 20
# absinfo: 54 0 1360 0 0 20
# absinfo: 57 0 65535 0 0 0
# absinfo: 58 0 255 0 0 0
E: 2213.765159 0003 002f 0
E: 2213.765159 0003 0030 180
E: 2213.765159 0003 0031 0
E: 2213.765159 0003 0032 0
E: 2213.765159 0003 0033 0
E: 2213.765159 0003 0034 0
E: 2213.765159 0003 0035 1152
E: 2213.765159 0003 0036 1116
E: 2213.765159 0003 0037 0
E: 2213.765159 0003 0038 0
E: 2213.765159 0003 0039 878
E: 2213.765159 0003 003a 46
E: 2213.765159 0003 003b 0
E: 2213.765159 0003 002f 1
E: 2213.765159 0003 0039 -1
E: 2213.765159 0003 002f 2
E: 2213.765159 0003 0039 -1
E: 2213.765159 0003 002f 3
E: 2213.765159 0003 0039 -1
E: 2213.765159 0003 002f 4
E: 2213.765159 0003 0039 -1
E: 2213.765159 0003 002f 5
E: 2213.765159 0003 0039 -1
E: 2213.765159 0003 002f 6
E: 2213.765159 0003 0039 -1
E: 2213.765159 0003 002f 7
E: 2213.765159 0003 0039 -1
E: 2213.765159 0003 002f 8
E: 2213.765159 0003 0039 -1
E: 2213.765159 0003 002f 9
E: 2213.765159 0003 0039 -1
E: 2213.765159 0003 002f 0
E: 2213.765159 0001 0145 1
E: 2213.765159 0001 014a 1
E: 2213.765159 0000 0000 0
E: 2213.778082 0003 003a 39
E: 2213.778082 0003 0018 39
E: 2213.778082 0000 0000 0
E: 2213.794932 0003 0036 1117
E: 2213.794932 0003 003a 32
E: 2213.794932 0003 0001 1117
E: 2213.794932 0003 0018 32
E: 2213.794932 0000 0000 0
E: 2213.811635 0003 003a 37
E: 2213.811635 0003 0018 37
E: 2213.811635 0000 0000 0
E: 2213.828906 0003 0036 1118
E: 2213.828906 0003 003a 56
E: 2213.828906 0003 0030 220
E: 2213.828906 0003 0001 1118
E: 2213.828906 0003 0018 56
E: 2213.828906 0000 0000 0
E: 2213.844999 0003 0035 1153
E: 2213.844999 0003 003a 67
E: 2213.844999 0003 0030 286
E: 2213.844999 0003 0034 -2
E: 2213.844999 0003 0000 1153
E: 2213.844999 0003 0018 67
E: 2213.844999 0000 0000 0
E: 2213.861863 0003 0036 1119
E: 2213.861863 0003 003a 79
E: 2213.861863 0003 0030 360
E: 2213.861863 0003 0001 1119
E: 2213.861863 0003 0018 79
E: 2213.861863 0000 0000 0
E: 2213.878613 0003 003a 83
E: 2213.878613 0003 0034 -3
E: 2213.878613 0003 0018 83
E: 2213.878613 0000 0000 0
E: 2213.895316 0003 0036 1120
E: 2213.895316 0003 0001 1120
E: 2213.895316 0000 0000 0
E: 2213.912103 0003 003a 90
E: 2213.912103 0003 0018 90
E: 2213.912103 0000 0000 0
E: 2213.935103 0003 0035 1154
E: 2213.935103 0003 0036 1121
E: 2213.935103 0003 0030 382
E: 2213.935103 0003 0034 -2
E: 2213.935103 0003 0000 1154
E: 2213.935103 0003 0001 1121
E: 2213.935103 0000 0000 0
E: 2213.941760 0003 003a 94
E: 2213.941760 0003 0030 360
E: 2213.941760 0003 0034 -3
E: 2213.941760 0003 0018 94
E: 2213.941760 0000 0000 0
E: 2213.955384 0003 0036 1122
E: 2213.955384 0003 0030 382
E: 2213.955384 0003 0034 -2
E: 2213.955384 0003 002f 1
E: 2213.955384 0003 0039 879
E: 2213.955384 0003 0035 1182
E: 2213.955384 0003 0036 669
E: 2213.955384 0003 003a 27
E: 2213.955384 0003 0034 0
E: 2213.955384 0001 0145 0
E: 2213.955384 0001 014d 1
E: 2213.955384 0003 0001 1122
E: 2213.955384 0000 0000 0
E: 2213.963885 0003 002f 0
E: 2213.963885 0003 003a 92
E: 2213.963885 0003 0030 360
E: 2213.963885 0003 0034 -3
E: 2213.963885 0003 002f 1
E: 2213.963885 0003 003a 26
E: 2213.963885 0003 0018 92
E: 2213.963885 0000 0000 0
E: 2213.980681 0003 002f 0
E: 2213.980681 0003 0036 1123
E: 2213.980681 0003 003a 96
E: 2213.980681 0003 0030 382
E: 2213.980681 0003 002f 1
E: 2213.980681 0003 003a 33
E: 2213.980681 0003 0034 2
E: 2213.980681 0003 0001 1123
E: 2213.980681 0003 0018 96
E: 2213.980681 0000 0000 0
E: 2213.997432 0003 002f 0
E: 2213.997432 0003 003a 95
E: 2213.997432 0003 0030 360
E: 2213.997432 0003 002f 1
E: 2213.997432 0003 0035 1180
E: 2213.997432 0003 0036 667
E: 2213.997432 0003 003a 34
E: 2213.997432 0003 0018 95
E: 2213.997432 0000 0000 0
E: 2214.014182 0003 002f 0
E: 2214.014182 0003 003a 98
E: 2214.014182 0003 0030 382
E: 2214.014182 0003 002f 1
E: 2214.014182 0003 0035 1171
E: 2214.014182 0003 0036 653
E: 2214.014182 0003 003a 40
E: 2214.014182 0003 0030 220
E: 2214.014182 0003 0018 98
E: 2214.014182 0000 0000 0
E: 2214.030911 0003 002f 0
E: 2214.030911 0003 003a 95
E: 2214.030911 0003 002f 1
E: 2214.030911 0003 0035 1107
E: 2214.030911 0003 0036 534
E: 2214.030911 0003 003a 42
E: 2214.030911 0003 0018 95
E: 2214.030911 0000 0000 0
E: 2214.048958 0003 002f 0
E: 2214.048958 0003 0036 1124
E: 2214.048958 0003 003a 97
E: 2214.048958 0003 002f 1
E: 2214.048958 0003 0035 1066
E: 2214.048958 0003 0036 467
E: 2214.048958 0003 0034 0
E: 2214.048958 0003 0001 1124
E: 2214.048958 0003 0018 97
E: 2214.048958 0000 0000 0
E: 2214.064061 0003 0035 1051
E: 2214.064061 0003 0036 427
E: 2214.064061 0003 003a 46
E: 2214.064061 0003 0030 254
E: 2214.064061 0000 0000 0
E: 2214.081156 0003 002f 0
E: 2214.081156 0003 003a 98
E: 2214.081156 0003 002f 1
E: 2214.081156 0003 0035 1041
E: 2214.081156 0003 0036 399
E: 2214.081156 0003 003a 43
E: 2214.081156 0003 0030 180
E: 2214.081156 0003 0034 2
E: 2214.081156 0003 0018 98
E: 2214.081156 0000 0000 0
E: 2214.097876 0003 002f 0
E: 2214.097876 0003 0036 1125
E: 2214.097876 0003 003a 99
E: 2214.097876 0003 0034 -2
E: 2214.097876 0003 002f 1
E: 2214.097876 0003 0035 1033
E: 2214.097876 0003 0036 382
E: 2214.097876 0003 003a 45
E: 2214.097876 0003 0001 1125
E: 2214.097876 0003 0018 99
E: 2214.097876 0000 0000 0
E: 2214.114615 0003 002f 0
E: 2214.114615 0003 0034 -3
E: 2214.114615 0003 002f 1
E: 2214.114615 0003 0035 1027
E: 2214.114615 0003 0036 370
E: 2214.114615 0003 003a 46
E: 2214.114615 0003 0030 254
E: 2214.114615 0003 0034 4
E: 2214.114615 0000 0000 0
E: 2214.131416 0003 002f 0
E: 2214.131416 0003 0034 -2
E: 2214.131416 0003 002f 1
E: 2214.131416 0003 0035 1022
E: 2214.131416 0003 0036 356
E: 2214.131416 0003 003a 43
E: 2214.131416 0003 0034 2
E: 2214.131416 0000 0000 0
E: 2214.148208 0003 002f 0
E: 2214.148208 0003 003a 100
E: 2214.148208 0003 0034 -3
E: 2214.148208 0003 002f 1
E: 2214.148208 0003 0035 1018
E: 2214.148208 0003 0036 339
E: 2214.148208 0003 003a 40
E: 2214.148208 0003 0034 0
E: 2214.148208 0003 0018 100
E: 2214.148208 0000 0000 0
E: 2214.164923 0003 002f 0
E: 2214.164923 0003 0036 1126
E: 2214.164923 0003 003a 98
E: 2214.164923 0003 002f 1
E: 2214.164923 0003 0035 1016
E: 2214.164923 0003 0036 326
E: 2214.164923 0003 003a 38
E: 2214.164923 0003 0030 220
E: 2214.164923 0003 0034 2
E: 2214.164923 0003 0001 1126
E: 2214.164923 0003 0018 98
E: 2214.164923 0000 0000 0
E: 2214.181639 0003 002f 0
E: 2214.181639 0003 003a 97
E: 2214.181639 0003 002f 1
E: 2214.181639 0003 0036 315
E: 2214.181639 0003 003a 25
E: 2214.181639 0003 0030 180
E: 2214.181639 0003 0018 97
E: 2214.181639 0000 0000 0
E: 2214.203381 0003 002f 0
E: 2214.203381 0003 003a 99
E: 2214.203381 0003 0018 99
E: 2214.203381 0000 0000 0
E: 2214.214454 0003 0036 1127
E: 2214.214454 0003 003a 100
E: 2214.214454 0003 0001 1127
E: 2214.214454 0003 0018 100
E: 2214.214454 0000 0000 0
E: 2214.220343 0003 003a 99
E: 2214.220343 0003 002f 1
E: 2214.220343 0003 0039 -1
E: 2214.220343 0001 0145 1
E: 2214.220343 0001 014d 0
E: 2214.220343 0003 0018 99
E: 2214.220343 0000 0000 0
E: 2214.230338 0003 002f 0
E: 2214.230338 0003 003a 100
E: 2214.230338 0003 0018 100
E: 2214.230338 0000 0000 0
E: 2214.280566 0003 003a 99
E: 2214.280566 0003 0018 99
E: 2214.280566 0000 0000 0
E: 2214.297333 0003 0036 1128
E: 2214.297333 0003 003a 98
E: 2214.297333 0003 0001 1128
E: 2214.297333 0003 0018 98
E: 2214.297333 0000 0000 0
E: 2214.314062 0003 003a 99
E: 2214.314062 0003 0018 99
E: 2214.314062 0000 0000 0
E: 2214.330822 0003 003a 100
E: 2214.330822 0003 0018 100
E: 2214.330822 0000 0000 0
E: 2214.353813 0003 003a 98
E: 2214.353813 0003 0018 98
E: 2214.353813 0000 0000 0
E: 2214.360420 0003 003a 97
E: 2214.360420 0003 0018 97
E: 2214.360420 0000 0000 0
E: 2214.367025 0003 0036 1129
E: 2214.367025 0003 003a 98
E: 2214.367025 0003 0001 1129
E: 2214.367025 0003 0018 98
E: 2214.367025 0000 0000 0
E: 2214.374268 0003 003a 91
E: 2214.374268 0003 0034 -2
E: 2214.374268 0003 002f 1
E: 2214.374268 0003 0039 880
E: 2214.374268 0003 0035 1131
E: 2214.374268 0003 0036 594
E: 2214.374268 0003 003a 29
E: 2214.374268 0001 0145 0
E: 2214.374268 0001 014d 1
E: 2214.374268 0003 0018 91
E: 2214.374268 0000 0000 0
E: 2214.382286 0003 002f 0
E: 2214.382286 0003 003a 101
E: 2214.382286 0003 0034 -3
E: 2214.382286 0003 0018 101
E: 2214.382286 0000 0000 0
E: 2214.399410 0003 0035 1155
E: 2214.399410 0003 003a 91
E: 2214.399410 0003 0034 -2
E: 2214.399410 0003 002f 1
E: 2214.399410 0003 003a 32
E: 2214.399410 0003 0000 1155
E: 2214.399410 0003 0018 91
E: 2214.399410 0000 0000 0
E: 2214.416117 0003 002f 0
E: 2214.416117 0003 0035 1154
E: 2214.416117 0003 003a 99
E: 2214.416117 0003 0034 -3
E: 2214.416117 0003 002f 1
E: 2214.416117 0003 003a 36
E: 2214.416117 0003 0000 1154
E: 2214.416117 0003 0018 99
E: 2214.416117 0000 0000 0
E: 2214.432516 0003 003a 40
E: 2214.432516 0003 0034 0
E: 2214.432516 0000 0000 0
E: 2214.449523 0003 002f 0
E: 2214.449523 0003 0036 1130
E: 2214.449523 0003 003a 98
E: 2214.449523 0003 0030 404
E: 2214.449523 0003 002f 1
E: 2214.449523 0003 0035 1127
E: 2214.449523 0003 0036 589
E: 2214.449523 0003 003a 41
E: 2214.449523 0003 0001 1130
E: 2214.449523 0003 0018 98
E: 2214.449523 0000 0000 0
E: 2214.467503 0003 002f 0
E: 2214.467503 0003 0035 1155
E: 2214.467503 0003 003a 103
E: 2214.467503 0003 0030 382
E: 2214.467503 0003 002f 1
E: 2214.467503 0003 0035 1103
E: 2214.467503 0003 0036 558
E: 2214.467503 0003 003a 42
E: 2214.467503 0003 0034 2
E: 2214.467503 0003 0000 1155
E: 2214.467503 0003 0018 103
E: 2214.467503 0000 0000 0
E: 2214.483112 0003 002f 0
E: 2214.483112 0003 003a 99
E: 2214.483112 0003 002f 1
E: 2214.483112 0003 0035 1019
E: 2214.483112 0003 0036 439
E: 2214.483112 0003 003a 43
E: 2214.483112 0003 0030 254
E: 2214.483112 0003 0018 99
E: 2214.483112 0000 0000 0
E: 2214.499860 0003 002f 0
E: 2214.499860 0003 0035 1154
E: 2214.499860 0003 003a 101
E: 2214.499860 0003 0034 -2
E: 2214.499860 0003 002f 1
E: 2214.499860 0003 0035 999
E: 2214.499860 0003 0036 398
E: 2214.499860 0003 003a 47
E: 2214.499860 0003 0030 220
E: 2214.499860 0003 0000 1154
E: 2214.499860 0003 0018 101
E: 2214.499860 0000 0000 0
E: 2214.516591 0003 002f 0
E: 2214.516591 0003 003a 100
E: 2214.516591 0003 0034 -3
E: 2214.516591 0003 002f 1
E: 2214.516591 0003 0035 989
E: 2214.516591 0003 0036 373
E: 2214.516591 0003 003a 49
E: 2214.516591 0003 0018 100
E: 2214.516591 0000 0000 0
E: 2214.533378 0003 002f 0
E: 2214.533378 0003 0030 404
E: 2214.533378 0003 002f 1
E: 2214.533378 0003 0035 974
E: 2214.533378 0003 0036 338
E: 2214.533378 0003 003a 51
E: 2214.533378 0003 0030 180
E: 2214.533378 0003 0034 0
E: 2214.533378 0000 0000 0
E: 2214.550232 0003 002f 0
E: 2214.550232 0003 0036 1131
E: 2214.550232 0003 003a 92
E: 2214.550232 0003 002f 1
E: 2214.550232 0003 0035 962
E: 2214.550232 0003 0036 311
E: 2214.550232 0003 003a 48
E: 2214.550232 0003 0030 220
E: 2214.550232 0003 0001 1131
E: 2214.550232 0003 0018 92
E: 2214.550232 0000 0000 0
E: 2214.566966 0003 002f 0
E: 2214.566966 0003 003a 100
E: 2214.566966 0003 002f 1
E: 2214.566966 0003 0035 952
E: 2214.566966 0003 0036 291
E: 2214.566966 0003 003a 46
E: 2214.566966 0003 0030 180
E: 2214.566966 0003 0034 2
E: 2214.566966 0003 0018 100
E: 2214.566966 0000 0000 0
E: 2214.583666 0003 002f 0
E: 2214.583666 0003 003a 93
E: 2214.583666 0003 0030 382
E: 2214.583666 0003 0034 -2
E: 2214.583666 0003 002f 1
E: 2214.583666 0003 0035 945
E: 2214.583666 0003 0036 268
E: 2214.583666 0003 003a 47
E: 2214.583666 0003 0018 93
E: 2214.583666 0000 0000 0
E: 2214.600441 0003 002f 0
E: 2214.600441 0003 003a 98
E: 2214.600441 0003 0030 404
E: 2214.600441 0003 0034 -3
E: 2214.600441 0003 002f 1
E: 2214.600441 0003 0035 942
E: 2214.600441 0003 0036 256
E: 2214.600441 0003 003a 46
E: 2214.600441 0003 0030 220
E: 2214.600441 0003 0018 98
E: 2214.600441 0000 0000 0
E: 2214.617265 0003 002f 0
E: 2214.617265 0003 003a 96
E: 2214.617265 0003 0034 -2
E: 2214.617265 0003 002f 1
E: 2214.617265 0003 0035 941
E: 2214.617265 0003 0036 247
E: 2214.617265 0003 003a 42
E: 2214.617265 0003 0034 0
E: 2214.617265 0003 0018 96
E: 2214.617265 0000 0000 0
E: 2214.634048 0003 002f 0
E: 2214.634048 0003 0036 1132
E: 2214.634048 0003 003a 99
E: 2214.634048 0003 0034 -3
E: 2214.634048 0003 002f 1
E: 2214.634048 0003 0035 940
E: 2214.634048 0003 0036 240
E: 2214.634048 0003 003a 37
E: 2214.634048 0003 0001 1132
E: 2214.634048 0003 0018 99
E: 2214.634048 0000 0000 0
E: 2214.650493 0003 002f 0
E: 2214.650493 0003 003a 94
E: 2214.650493 0003 002f 1
E: 2214.650493 0003 0035 938
E: 2214.650493 0003 0036 231
E: 2214.650493 0003 003a 23
E: 2214.650493 0003 0030 126
E: 2214.650493 0003 0034 2
E: 2214.650493 0003 0018 94
E: 2214.650493 0000 0000 0
E: 2214.667025 0003 002f 0
E: 2214.667025 0003 003a 101
E: 2214.667025 0003 0018 101
E: 2214.667025 0000 0000 0
E: 2214.672546 0003 003a 100
E: 2214.672546 0003 0018 100
E: 2214.672546 0000 0000 0
E: 2214.678117 0003 003a 102
E: 2214.678117 0003 0018 102
E: 2214.678117 0000 0000 0
E: 2214.689608 0003 0036 1133
E: 2214.689608 0003 003a 100
E: 2214.689608 0003 002f 1
E: 2214.689608 0003 0039 -1
E: 2214.689608 0001 0145 1
E: 2214.689608 0001 014d 0
E: 2214.689608 0003 0001 1133
E: 2214.689608 0003 0018 100
E: 2214.689608 0000 0000 0
E: 2214.716060 0003 002f 0
E: 2214.716060 0003 003a 103
E: 2214.716060 0003 0018 103
E: 2214.716060 0000 0000 0
E: 2214.732821 0003 003a 95
E: 2214.732821 0003 0018 95
E: 2214.732821 0000 0000 0
E: 2214.749553 0003 003a 101
E: 2214.749553 0003 0018 101
E: 2214.749553 0000 0000 0
E: 2214.766288 0003 003a 103
E: 2214.766288 0003 0030 382
E: 2214.766288 0003 0018 103
E: 2214.766288 0000 0000 0
E: 2214.783083 0003 003a 101
E: 2214.783083 0003 0030 404
E: 2214.783083 0003 0018 101
E: 2214.783083 0000 0000 0
E: 2214.799650 0003 003a 95
E: 2214.799650 0003 0018 95
E: 2214.799650 0000 0000 0
E: 2214.816585 0003 0036 1134
E: 2214.816585 0003 003a 103
E: 2214.816585 0003 0001 1134
E: 2214.816585 0003 0018 103
E: 2214.816585 0000 0000 0
E: 2214.833291 0003 003a 100
E: 2214.833291 0003 0030 382
E: 2214.833291 0003 0018 100
E: 2214.833291 0000 0000 0
E: 2214.850081 0003 003a 101
E: 2214.850081 0003 0030 404
E: 2214.850081 0003 0018 101
E: 2214.850081 0000 0000 0
E: 2214.879891 0003 003a 102
E: 2214.879891 0003 0030 382
E: 2214.879891 0003 0018 102
E: 2214.879891 0000 0000 0
E: 2214.887864 0003 003a 103
E: 2214.887864 0003 0030 404
E: 2214.887864 0003 0018 103
E: 2214.887864 0000 0000 0
E: 2214.895082 0003 003a 100
E: 2214.895082 0003 002f 1
E: 2214.895082 0003 0039 881
E: 2214.895082 0003 0035 1132
E: 2214.895082 0003 0036 634
E: 2214.895082 0003 003a 28
E: 2214.895082 0003 0030 180
E: 2214.895082 0001 0145 0
E: 2214.895082 0001 014d 1
E: 2214.895082 0003 0018 100
E: 2214.895082 0000 0000 0
E: 2214.901443 0003 002f 0
E: 2214.901443 0003 003a 101
E: 2214.901443 0003 0030 382
E: 2214.901443 0003 0018 101
E: 2214.901443 0000 0000 0
E: 2214.918589 0003 003a 100
E: 2214.918589 0003 0030 404
E: 2214.918589 0003 002f 1
E: 2214.918589 0003 0035 1131
E: 2214.918589 0003 0036 633
E: 2214.918589 0003 003a 32
E: 2214.918589 0003 0018 100
E: 2214.918589 0000 0000 0
E: 2214.935347 0003 002f 0
E: 2214.935347 0003 0036 1135
E: 2214.935347 0003 003a 102
E: 2214.935347 0003 002f 1
E: 2214.935347 0003 0035 1128
E: 2214.935347 0003 0036 628
E: 2214.935347 0003 003a 36
E: 2214.935347 0003 0034 0
E: 2214.935347 0003 0001 1135
E: 2214.935347 0003 0018 102
E: 2214.935347 0000 0000 0
E: 2214.952039 0003 002f 0
E: 2214.952039 0003 003a 94
E: 2214.952039 0003 0030 382
E: 2214.952039 0003 002f 1
E: 2214.952039 0003 0035 1100
E: 2214.952039 0003 0036 583
E: 2214.952039 0003 003a 39
E: 2214.952039 0003 0034 2
E: 2214.952039 0003 0018 94
E: 2214.952039 0000 0000 0
E: 2214.968847 0003 002f 0
E: 2214.968847 0003 0030 404
E: 2214.968847 0003 002f 1
E: 2214.968847 0003 0035 1022
E: 2214.968847 0003 0036 446
E: 2214.968847 0003 003a 40
E: 2214.968847 0003 0030 254
E: 2214.968847 0000 0000 0
E: 2214.985541 0003 002f 0
E: 2214.985541 0003 003a 96
E: 2214.985541 0003 002f 1
E: 2214.985541 0003 0035 991
E: 2214.985541 0003 0036 388
E: 2214.985541 0003 003a 44
E: 2214.985541 0003 0030 220
E: 2214.985541 0003 0018 96
E: 2214.985541 0000 0000 0
E: 2215.002364 0003 002f 0
E: 2215.002364 0003 003a 95
E: 2215.002364 0003 002f 1
E: 2215.002364 0003 0035 969
E: 2215.002364 0003 0036 354
E: 2215.002364 0003 003a 47
E: 2215.002364 0003 0034 0
E: 2215.002364 0003 0018 95
E: 2215.002364 0000 0000 0
E: 2215.019187 0003 002f 0
E: 2215.019187 0003 003a 101
E: 2215.019187 0003 0030 382
E: 2215.019187 0003 002f 1
E: 2215.019187 0003 0035 956
E: 2215.019187 0003 0036 331
E: 2215.019187 0003 003a 49
E: 2215.019187 0003 0018 101
E: 2215.019187 0000 0000 0
E: 2215.035942 0003 002f 0
E: 2215.035942 0003 0030 404
E: 2215.035942 0003 002f 1
E: 2215.035942 0003 0035 944
E: 2215.035942 0003 0036 308
E: 2215.035942 0003 003a 45
E: 2215.035942 0000 0000 0
E: 2215.052695 0003 002f 0
E: 2215.052695 0003 003a 97
E: 2215.052695 0003 002f 1
E: 2215.052695 0003 0035 937
E: 2215.052695 0003 0036 288
E: 2215.052695 0003 003a 46
E: 2215.052695 0003 0034 2
E: 2215.052695 0003 0018 97
E: 2215.052695 0000 0000 0
E: 2215.069454 0003 002f 0
E: 2215.069454 0003 003a 101
E: 2215.069454 0003 002f 1
E: 2215.069454 0003 0035 935
E: 2215.069454 0003 0036 279
E: 2215.069454 0003 003a 41
E: 2215.069454 0003 0030 180
E: 2215.069454 0003 0018 101
E: 2215.069454 0000 0000 0
E: 2215.087512 0003 002f 0
E: 2215.087512 0003 0036 1136
E: 2215.087512 0003 002f 1
E: 2215.087512 0003 0035 934
E: 2215.087512 0003 0036 271
E: 2215.087512 0003 003a 36
E: 2215.087512 0003 0001 1136
E: 2215.087512 0000 0000 0
E: 2215.102973 0003 002f 0
E: 2215.102973 0003 003a 96
E: 2215.102973 0003 002f 1
E: 2215.102973 0003 0035 933
E: 2215.102973 0003 0036 267
E: 2215.102973 0003 003a 33
E: 2215.102973 0003 0018 96
E: 2215.102973 0000 0000 0
E: 2215.119147 0003 002f 0
E: 2215.119147 0003 003a 100
E: 2215.119147 0003 0018 100
E: 2215.119147 0000 0000 0
E: 2215.124734 0003 003a 96
E: 2215.124734 0003 0018 96
E: 2215.124734 0000 0000 0
E: 2215.130281 0003 003a 100
E: 2215.130281 0003 0018 100
E: 2215.130281 0000 0000 0
E: 2215.135874 0003 003a 99
E: 2215.135874 0003 0018 99
E: 2215.135874 0000 0000 0
E: 2215.141434 0003 002f 1
E: 2215.141434 0003 0039 -1
E: 2215.141434 0001 0145 1
E: 2215.141434 0001 014d 0
E: 2215.141434 0000 0000 0
E: 2215.151556 0003 002f 0
E: 2215.151556 0003 0036 1137
E: 2215.151556 0003 003a 103
E: 2215.151556 0003 0001 1137
E: 2215.151556 0003 0018 103
E: 2215.151556 0000 0000 0
E: 2215.168297 0003 003a 101
E: 2215.168297 0003 0018 101
E: 2215.168297 0000 0000 0
E: 2215.185060 0003 003a 100
E: 2215.185060 0003 0018 100
E: 2215.185060 0000 0000 0
E: 2215.235142 0003 003a 101
E: 2215.235142 0003 0018 101
E: 2215.235142 0000 0000 0
E: 2215.252036 0003 003a 100
E: 2215.252036 0003 0018 100
E: 2215.252036 0000 0000 0
E: 2215.268798 0003 003a 99
E: 2215.268798 0003 0018 99
E: 2215.268798 0000 0000 0
E: 2215.285501 0003 003a 102
E: 2215.285501 0003 0018 102
E: 2215.285501 0000 0000 0
E: 2215.303402 0003 003a 103
E: 2215.303402 0003 0018 103
E: 2215.303402 0000 0000 0
E: 2215.319032 0003 0036 1138
E: 2215.319032 0003 003a 100
E: 2215.319032 0003 0001 1138
E: 2215.319032 0003 0018 100
E: 2215.319032 0000 0000 0
E: 2215.342104 0003 003a 99
E: 2215.342104 0003 0018 99
E: 2215.342104 0000 0000 0
E: 2215.348755 0003 003a 96
E: 2215.348755 0003 0018 96
E: 2215.348755 0000 0000 0
E: 2215.355391 0003 003a 94
E: 2215.355391 0003 0018 94
E: 2215.355391 0000 0000 0
E: 2215.362556 0003 003a 100
E: 2215.362556 0003 002f 1
E: 2215.362556 0003 0039 882
E: 2215.362556 0003 0035 1152
E: 2215.362556 0003 0036 661
E: 2215.362556 0003 003a 25
E: 2215.362556 0003 0030 126
E: 2215.362556 0001 0145 0
E: 2215.362556 0001 014d 1
E: 2215.362556 0003 0018 100
E: 2215.362556 0000 0000 0
E: 2215.370821 0003 002f 0
E: 2215.370821 0003 003a 97
E: 2215.370821 0003 002f 1
E: 2215.370821 0003 003a 28
E: 2215.370821 0003 0030 180
E: 2215.370821 0003 0018 97
E: 2215.370821 0000 0000 0
E: 2215.387586 0003 002f 0
E: 2215.387586 0003 003a 100
E: 2215.387586 0003 002f 1
E: 2215.387586 0003 0035 1151
E: 2215.387586 0003 0036 660
E: 2215.387586 0003 003a 30
E: 2215.387586 0003 0018 100
E: 2215.387586 0000 0000 0
E: 2215.404307 0003 002f 0
E: 2215.404307 0003 003a 101
E: 2215.404307 0003 002f 1
E: 2215.404307 0003 0035 1145
E: 2215.404307 0003 0036 652
E: 2215.404307 0003 003a 36
E: 2215.404307 0003 0034 0
E: 2215.404307 0003 0018 101
E: 2215.404307 0000 0000 0
E: 2215.421048 0003 002f 0
E: 2215.421048 0003 003a 95
E: 2215.421048 0003 002f 1
E: 2215.421048 0003 0035 1089
E: 2215.421048 0003 0036 576
E: 2215.421048 0003 003a 37
E: 2215.421048 0003 0018 95
E: 2215.421048 0000 0000 0
E: 2215.437786 0003 002f 0
E: 2215.437786 0003 003a 101
E: 2215.437786 0003 002f 1
E: 2215.437786 0003 0035 1027
E: 2215.437786 0003 0036 478
E: 2215.437786 0003 003a 40
E: 2215.437786 0003 0034 2
E: 2215.437786 0003 0018 101
E: 2215.437786 0000 0000 0
E: 2215.454506 0003 002f 0
E: 2215.454506 0003 003a 99
E: 2215.454506 0003 0030 382
E: 2215.454506 0003 002f 1
E: 2215.454506 0003 0035 996
E: 2215.454506 0003 0036 416
E: 2215.454506 0003 003a 43
E: 2215.454506 0003 0030 220
E: 2215.454506 0003 0034 0
E: 2215.454506 0003 0018 99
E: 2215.454506 0000 0000 0
E: 2215.471297 0003 002f 0
E: 2215.471297 0003 003a 100
E: 2215.471297 0003 0030 404
E: 2215.471297 0003 002f 1
E: 2215.471297 0003 0035 964
E: 2215.471297 0003 0036 368
E: 2215.471297 0003 003a 46
E: 2215.471297 0003 0034 2
E: 2215.471297 0003 0018 100
E: 2215.471297 0000 0000 0
E: 2215.488184 0003 002f 0
E: 2215.488184 0003 003a 99
E: 2215.488184 0003 002f 1
E: 2215.488184 0003 0035 953
E: 2215.488184 0003 0036 347
E: 2215.488184 0003 003a 44
E: 2215.488184 0003 0034 0
E: 2215.488184 0003 0018 99
E: 2215.488184 0000 0000 0
E: 2215.506312 0003 002f 0
E: 2215.506312 0003 003a 98
E: 2215.506312 0003 002f 1
E: 2215.506312 0003 0035 945
E: 2215.506312 0003 0036 322
E: 2215.506312 0003 003a 45
E: 2215.506312 0003 0018 98
E: 2215.506312 0000 0000 0
E: 2215.521659 0003 002f 0
E: 2215.521659 0003 003a 102
E: 2215.521659 0003 002f 1
E: 2215.521659 0003 0035 939
E: 2215.521659 0003 0036 305
E: 2215.521659 0003 003a 46
E: 2215.521659 0003 0034 2
E: 2215.521659 0003 0018 102
E: 2215.521659 0000 0000 0
E: 2215.538396 0003 002f 0
E: 2215.538396 0003 0036 1139
E: 2215.538396 0003 002f 1
E: 2215.538396 0003 0035 936
E: 2215.538396 0003 0036 293
E: 2215.538396 0003 003a 44
E: 2215.538396 0003 0030 180
E: 2215.538396 0003 0001 1139
E: 2215.538396 0000 0000 0
E: 2215.554850 0003 0035 934
E: 2215.554850 0003 0036 284
E: 2215.554850 0003 003a 38
E: 2215.554850 0000 0000 0
E: 2215.571780 0003 002f 0
E: 2215.571780 0003 0035 1155
E: 2215.571780 0003 003a 100
E: 2215.571780 0003 002f 1
E: 2215.571780 0003 0035 935
E: 2215.571780 0003 0036 280
E: 2215.571780 0003 003a 29
E: 2215.571780 0003 0030 126
E: 2215.571780 0003 0000 1155
E: 2215.571780 0003 0018 100
E: 2215.571780 0000 0000 0
E: 2215.588149 0003 002f 0
E: 2215.588149 0003 003a 102
E: 2215.588149 0003 0018 102
E: 2215.588149 0000 0000 0
E: 2215.593691 0003 003a 97
E: 2215.593691 0003 0018 97
E: 2215.593691 0000 0000 0
E: 2215.610805 0003 003a 98
E: 2215.610805 0003 002f 1
E: 2215.610805 0003 0039 -1
E: 2215.610805 0001 0145 1
E: 2215.610805 0001 014d 0
E: 2215.610805 0003 0018 98
E: 2215.610805 0000 0000 0
E: 2215.620449 0003 002f 0
E: 2215.620449 0003 0036 1140
E: 2215.620449 0003 003a 100
E: 2215.620449 0003 0001 1140
E: 2215.620449 0003 0018 100
E: 2215.620449 0000 0000 0
E: 2215.637221 0003 003a 96
E: 2215.637221 0003 0018 96
E: 2215.637221 0000 0000 0
E: 2215.653955 0003 003a 102
E: 2215.653955 0003 0018 102
E: 2215.653955 0000 0000 0
E: 2215.670725 0003 003a 96
E: 2215.670725 0003 0018 96
E: 2215.670725 0000 0000 0
E: 2215.687473 0003 003a 101
E: 2215.687473 0003 0018 101
E: 2215.687473 0000 0000 0
E: 2215.704158 0003 003a 102
E: 2215.704158 0003 0018 102
E: 2215.704158 0000 0000 0
E: 2215.722138 0003 003a 97
E: 2215.722138 0003 0018 97
E: 2215.722138 0000 0000 0
E: 2215.737719 0003 003a 102
E: 2215.737719 0003 0018 102
E: 2215.737719 0000 0000 0
E: 2215.787962 0003 003a 103
E: 2215.787962 0003 0018 103
E: 2215.787962 0000 0000 0
E: 2215.811049 0003 003a 102
E: 2215.811049 0003 0018 102
E: 2215.811049 0000 0000 0
E: 2215.817693 0003 003a 101
E: 2215.817693 0003 0018 101
E: 2215.817693 0000 0000 0
E: 2215.824314 0003 003a 102
E: 2215.824314 0003 0018 102
E: 2215.824314 0000 0000 0
E: 2215.831499 0003 003a 98
E: 2215.831499 0003 002f 1
E: 2215.831499 0003 0039 883
E: 2215.831499 0003 0035 1152
E: 2215.831499 0003 0036 680
E: 2215.831499 0003 003a 25
E: 2215.831499 0001 0145 0
E: 2215.831499 0001 014d 1
E: 2215.831499 0003 0018 98
E: 2215.831499 0000 0000 0
E: 2215.839779 0003 002f 0
E: 2215.839779 0003 003a 96
E: 2215.839779 0003 002f 1
E: 2215.839779 0003 003a 29
E: 2215.839779 0003 0030 220
E: 2215.839779 0003 0018 96
E: 2215.839779 0000 0000 0
E: 2215.856525 0003 002f 0
E: 2215.856525 0003 003a 98
E: 2215.856525 0003 002f 1
E: 2215.856525 0003 0035 1151
E: 2215.856525 0003 0036 678
E: 2215.856525 0003 003a 28
E: 2215.856525 0003 0030 180
E: 2215.856525 0003 0018 98
E: 2215.856525 0000 0000 0
E: 2215.873251 0003 002f 0
E: 2215.873251 0003 003a 100
E: 2215.873251 0003 002f 1
E: 2215.873251 0003 0035 1141
E: 2215.873251 0003 0036 665
E: 2215.873251 0003 003a 36
E: 2215.873251 0003 0030 126
E: 2215.873251 0003 0018 100
E: 2215.873251 0000 0000 0
E: 2215.890023 0003 002f 0
E: 2215.890023 0003 003a 96
E: 2215.890023 0003 002f 1
E: 2215.890023 0003 0035 1080
E: 2215.890023 0003 0036 573
E: 2215.890023 0003 003a 40
E: 2215.890023 0003 0030 180
E: 2215.890023 0003 0034 0
E: 2215.890023 0003 0018 96
E: 2215.890023 0000 0000 0
E: 2215.906740 0003 002f 0
E: 2215.906740 0003 003a 100
E: 2215.906740 0003 002f 1
E: 2215.906740 0003 0035 1026
E: 2215.906740 0003 0036 501
E: 2215.906740 0003 003a 38
E: 2215.906740 0003 0034 2
E: 2215.906740 0003 0018 100
E: 2215.906740 0000 0000 0
E: 2215.924964 0003 002f 0
E: 2215.924964 0003 0036 1141
E: 2215.924964 0003 003a 99
E: 2215.924964 0003 002f 1
E: 2215.924964 0003 0035 997
E: 2215.924964 0003 0036 442
E: 2215.924964 0003 003a 42
E: 2215.924964 0003 0030 254
E: 2215.924964 0003 0034 0
E: 2215.924964 0003 0001 1141
E: 2215.924964 0003 0018 99
E: 2215.924964 0000 0000 0
E: 2215.940264 0003 002f 0
E: 2215.940264 0003 003a 100
E: 2215.940264 0003 002f 1
E: 2215.940264 0003 0035 962
E: 2215.940264 0003 0036 379
E: 2215.940264 0003 003a 46
E: 2215.940264 0003 0030 220
E: 2215.940264 0003 0034 2
E: 2215.940264 0003 0018 100
E: 2215.940264 0000 0000 0
E: 2215.957117 0003 002f 0
E: 2215.957117 0003 003a 103
E: 2215.957117 0003 002f 1
E: 2215.957117 0003 0035 944
E: 2215.957117 0003 0036 340
E: 2215.957117 0003 003a 45
E: 2215.957117 0003 0034 0
E: 2215.957117 0003 0018 103
E: 2215.957117 0000 0000 0
E: 2215.973524 0003 0035 935
E: 2215.973524 0003 0036 308
E: 2215.973524 0003 003a 49
E: 2215.973524 0003 0030 254
E: 2215.973524 0000 0000 0
E: 2215.990610 0003 002f 0
E: 2215.990610 0003 003a 101
E: 2215.990610 0003 002f 1
E: 2215.990610 0003 0035 928
E: 2215.990610 0003 0036 289
E: 2215.990610 0003 003a 50
E: 2215.990610 0003 0030 220
E: 2215.990610 0003 0034 2
E: 2215.990610 0003 0018 101
E: 2215.990610 0000 0000 0
E: 2216.007335 0003 002f 0
E: 2216.007335 0003 003a 102
E: 2216.007335 0003 002f 1
E: 2216.007335 0003 0035 924
E: 2216.007335 0003 0036 278
E: 2216.007335 0003 003a 44
E: 2216.007335 0003 0030 180
E: 2216.007335 0003 0018 102
E: 2216.007335 0000 0000 0
E: 2216.024061 0003 002f 0
E: 2216.024061 0003 003a 103
E: 2216.024061 0003 002f 1
E: 2216.024061 0003 0035 922
E: 2216.024061 0003 0036 271
E: 2216.024061 0003 0018 103
E: 2216.024061 0000 0000 0
E: 2216.040899 0003 002f 0
E: 2216.040899 0003 003a 100
E: 2216.040899 0003 002f 1
E: 2216.040899 0003 0035 921
E: 2216.040899 0003 0036 264
E: 2216.040899 0003 003a 33
E: 2216.040899 0003 0018 100
E: 2216.040899 0000 0000 0
E: 2216.057145 0003 002f 0
E: 2216.057145 0003 003a 98
E: 2216.057145 0003 0018 98
E: 2216.057145 0000 0000 0
E: 2216.062669 0003 003a 101
E: 2216.062669 0003 0018 101
E: 2216.062669 0000 0000 0
E: 2216.068222 0003 003a 100
E: 2216.068222 0003 0018 100
E: 2216.068222 0000 0000 0
E: 2216.073773 0003 003a 96
E: 2216.073773 0003 0018 96
E: 2216.073773 0000 0000 0
E: 2216.079693 0003 003a 97
E: 2216.079693 0003 002f 1
E: 2216.079693 0003 0039 -1
E: 2216.079693 0001 0145 1
E: 2216.079693 0001 014d 0
E: 2216.079693 0003 0018 97
E: 2216.079693 0000 0000 0
E: 2216.089430 0003 002f 0
E: 2216.089430 0003 003a 100
E: 2216.089430 0003 0018 100
E: 2216.089430 0000 0000 0
E: 2216.106193 0003 003a 99
E: 2216.106193 0003 0018 99
E: 2216.106193 0000 0000 0
E: 2216.122950 0003 003a 101
E: 2216.122950 0003 0018 101
E: 2216.122950 0000 0000 0
E: 2216.140845 0003 003a 102
E: 2216.140845 0003 0018 102
E: 2216.140845 0000 0000 0
E: 2216.156442 0003 003a 100
E: 2216.156442 0003 0018 100
E: 2216.156442 0000 0000 0
E: 2216.173192 0003 003a 96
E: 2216.173192 0003 0018 96
E: 2216.173192 0000 0000 0
E: 2216.189938 0003 003a 102
E: 2216.189938 0003 0018 102
E: 2216.189938 0000 0000 0
E: 2216.240178 0003 003a 99
E: 2216.240178 0003 0018 99
E: 2216.240178 0000 0000 0
E: 2216.256942 0003 0036 1142
E: 2216.256942 0003 003a 102
E: 2216.256942 0003 0001 1142
E: 2216.256942 0003 0018 102
E: 2216.256942 0000 0000 0
E: 2216.273688 0003 003a 97
E: 2216.273688 0003 0018 97
E: 2216.273688 0000 0000 0
E: 2216.296749 0003 003a 99
E: 2216.296749 0003 0018 99
E: 2216.296749 0000 0000 0
E: 2216.303411 0003 003a 98
E: 2216.303411 0003 0018 98
E: 2216.303411 0000 0000 0
E: 2216.317223 0003 003a 102
E: 2216.317223 0003 002f 1
E: 2216.317223 0003 0039 884
E: 2216.317223 0003 0035 1148
E: 2216.317223 0003 0036 673
E: 2216.317223 0003 003a 26
E: 2216.317223 0003 0030 126
E: 2216.317223 0001 0145 0
E: 2216.317223 0001 014d 1
E: 2216.317223 0003 0018 102
E: 2216.317223 0000 0000 0
E: 2216.325089 0003 0035 1147
E: 2216.325089 0000 0000 0
E: 2216.343522 0003 002f 0
E: 2216.343522 0003 003a 101
E: 2216.343522 0003 002f 1
E: 2216.343522 0003 0036 672
E: 2216.343522 0003 003a 30
E: 2216.343522 0003 0030 180
E: 2216.343522 0003 0018 101
E: 2216.343522 0000 0000 0
E: 2216.358639 0003 0035 1142
E: 2216.358639 0003 0036 665
E: 2216.358639 0003 003a 32
E: 2216.358639 0003 0030 126
E: 2216.358639 0000 0000 0
E: 2216.375713 0003 002f 0
E: 2216.375713 0003 0035 1154
E: 2216.375713 0003 002f 1
E: 2216.375713 0003 0035 1089
E: 2216.375713 0003 0036 585
E: 2216.375713 0003 003a 35
E: 2216.375713 0003 0030 180
E: 2216.375713 0003 0034 0
E: 2216.375713 0003 0000 1154
E: 2216.375713 0000 0000 0
E: 2216.392475 0003 002f 0
E: 2216.392475 0003 0035 1155
E: 2216.392475 0003 003a 96
E: 2216.392475 0003 002f 1
E: 2216.392475 0003 0035 1029
E: 2216.392475 0003 0036 496
E: 2216.392475 0003 003a 38
E: 2216.392475 0003 0034 2
E: 2216.392475 0003 0000 1155
E: 2216.392475 0003 0018 96
E: 2216.392475 0000 0000 0
E: 2216.409230 0003 002f 0
E: 2216.409230 0003 003a 98
E: 2216.409230 0003 002f 1
E: 2216.409230 0003 0035 1003
E: 2216.409230 0003 0036 439
E: 2216.409230 0003 003a 41
E: 2216.409230 0003 0030 254
E: 2216.409230 0003 0034 0
E: 2216.409230 0003 0018 98
E: 2216.409230 0000 0000 0
E: 2216.425941 0003 002f 0
E: 2216.425941 0003 0035 1154
E: 2216.425941 0003 003a 102
E: 2216.425941 0003 002f 1
E: 2216.425941 0003 0035 978
E: 2216.425941 0003 0036 388
E: 2216.425941 0003 003a 44
E: 2216.425941 0003 0030 180
E: 2216.425941 0003 0034 2
E: 2216.425941 0003 0000 1154
E: 2216.425941 0003 0018 102
E: 2216.425941 0000 0000 0
E: 2216.442835 0003 002f 0
E: 2216.442835 0003 0035 1155
E: 2216.442835 0003 003a 101
E: 2216.442835 0003 002f 1
E: 2216.442835 0003 0035 957
E: 2216.442835 0003 0036 350
E: 2216.442835 0003 0030 220
E: 2216.442835 0003 0034 0
E: 2216.442835 0003 0000 1155
E: 2216.442835 0003 0018 101
E: 2216.442835 0000 0000 0
E: 2216.459598 0003 002f 0
E: 2216.459598 0003 0035 1154
E: 2216.459598 0003 003a 96
E: 2216.459598 0003 002f 1
E: 2216.459598 0003 0035 946
E: 2216.459598 0003 0036 315
E: 2216.459598 0003 003a 46
E: 2216.459598 0003 0000 1154
E: 2216.459598 0003 0018 96
E: 2216.459598 0000 0000 0
E: 2216.476341 0003 002f 0
E: 2216.476341 0003 003a 98
E: 2216.476341 0003 002f 1
E: 2216.476341 0003 0035 942
E: 2216.476341 0003 0036 296
E: 2216.476341 0003 003a 43
E: 2216.476341 0003 0034 2
E: 2216.476341 0003 0018 98
E: 2216.476341 0000 0000 0
E: 2216.493073 0003 002f 0
E: 2216.493073 0003 003a 95
E: 2216.493073 0003 002f 1
E: 2216.493073 0003 0035 940
E: 2216.493073 0003 0036 282
E: 2216.493073 0003 003a 40
E: 2216.493073 0003 0030 180
E: 2216.493073 0003 0018 95
E: 2216.493073 0000 0000 0
E: 2216.509703 0003 002f 0
E: 2216.509703 0003 003a 103
E: 2216.509703 0003 002f 1
E: 2216.509703 0003 0035 938
E: 2216.509703 0003 0036 265
E: 2216.509703 0003 003a 28
E: 2216.509703 0003 0030 126
E: 2216.509703 0003 0018 103
E: 2216.509703 0000 0000 0
E: 2216.526417 0003 002f 0
E: 2216.526417 0003 003a 100
E: 2216.526417 0003 002f 1
E: 2216.526417 0003 0035 936
E: 2216.526417 0003 0036 250
E: 2216.526417 0003 003a 20
E: 2216.526417 0003 0018 100
E: 2216.526417 0000 0000 0
E: 2216.542817 0003 002f 0
E: 2216.542817 0003 003a 97
E: 2216.542817 0003 0018 97
E: 2216.542817 0000 0000 0
E: 2216.553954 0003 003a 96
E: 2216.553954 0003 0018 96
E: 2216.553954 0000 0000 0
E: 2216.560670 0003 0035 1155
E: 2216.560670 0003 003a 97
E: 2216.560670 0003 0000 1155
E: 2216.560670 0003 0018 97
E: 2216.560670 0000 0000 0
E: 2216.566588 0003 0035 1154
E: 2216.566588 0003 003a 101
E: 2216.566588 0003 002f 1
E: 2216.566588 0003 0039 -1
E: 2216.566588 0001 0145 1
E: 2216.566588 0001 014d 0
E: 2216.566588 0003 0000 1154
E: 2216.566588 0003 0018 101
E: 2216.566588 0000 0000 0
E: 2216.575100 0003 002f 0
E: 2216.575100 0003 003a 102
E: 2216.575100 0003 0018 102
E: 2216.575100 0000 0000 0
E: 2216.591909 0003 0035 1155
E: 2216.591909 0003 003a 100
E: 2216.591909 0003 0000 1155
E: 2216.591909 0003 0018 100
E: 2216.591909 0000 0000 0
E: 2216.608653 0003 003a 97
E: 2216.608653 0003 0018 97
E: 2216.608653 0000 0000 0
E: 2216.625395 0003 0035 1154
E: 2216.625395 0003 003a 102
E: 2216.625395 0003 0000 1154
E: 2216.625395 0003 0018 102
E: 2216.625395 0000 0000 0
E: 2216.642156 0003 003a 97
E: 2216.642156 0003 0018 97
E: 2216.642156 0000 0000 0
E: 2216.658900 0003 0035 1155
E: 2216.658900 0003 0036 1143
E: 2216.658900 0003 003a 98
E: 2216.658900 0003 0000 1155
E: 2216.658900 0003 0001 1143
E: 2216.658900 0003 0018 98
E: 2216.658900 0000 0000 0
E: 2216.675626 0003 003a 96
E: 2216.675626 0003 0018 96
E: 2216.675626 0000 0000 0
E: 2216.692397 0003 003a 98
E: 2216.692397 0003 0018 98
E: 2216.692397 0000 0000 0
E: 2216.709143 0003 003a 97
E: 2216.709143 0003 0018 97
E: 2216.709143 0000 0000 0
E: 2216.725877 0003 003a 102
E: 2216.725877 0003 0018 102
E: 2216.725877 0000 0000 0
E: 2216.742643 0003 003a 103
E: 2216.742643 0003 0018 103
E: 2216.742643 0000 0000 0
E: 2216.798015 0003 0035 1154
E: 2216.798015 0003 003a 101
E: 2216.798015 0003 0000 1154
E: 2216.798015 0003 0018 101
E: 2216.798015 0000 0000 0
E: 2216.836269 0003 002f 1
E: 2216.836269 0003 0039 885
E: 2216.836269 0003 0035 1127
E: 2216.836269 0003 0036 636
E: 2216.836269 0003 003a 32
E: 2216.836269 0003 0030 180
E: 2216.836269 0001 0145 0
E: 2216.836269 0001 014d 1
E: 2216.836269 0000 0000 0
E: 2216.844703 0003 002f 0
E: 2216.844703 0003 003a 105
E: 2216.844703 0003 002f 1
E: 2216.844703 0003 0035 1126
E: 2216.844703 0003 0036 635
E: 2216.844703 0003 003a 33
E: 2216.844703 0003 0030 126
E: 2216.844703 0003 0018 105
E: 2216.844703 0000 0000 0
E: 2216.861441 0003 002f 0
E: 2216.861441 0003 003a 96
E: 2216.861441 0003 002f 1
E: 2216.861441 0003 0035 1118
E: 2216.861441 0003 0036 623
E: 2216.861441 0003 003a 36
E: 2216.861441 0003 0030 180
E: 2216.861441 0003 0034 0
E: 2216.861441 0003 0018 96
E: 2216.861441 0000 0000 0
E: 2216.878192 0003 002f 0
E: 2216.878192 0003 0036 1142
E: 2216.878192 0003 003a 101
E: 2216.878192 0003 002f 1
E: 2216.878192 0003 0035 1024
E: 2216.878192 0003 0036 481
E: 2216.878192 0003 003a 39
E: 2216.878192 0003 0034 2
E: 2216.878192 0003 0001 1142
E: 2216.878192 0003 0018 101
E: 2216.878192 0000 0000 0
E: 2216.894868 0003 002f 0
E: 2216.894868 0003 003a 102
E: 2216.894868 0003 002f 1
E: 2216.894868 0003 0035 996
E: 2216.894868 0003 0036 416
E: 2216.894868 0003 003a 41
E: 2216.894868 0003 0030 220
E: 2216.894868 0003 0034 0
E: 2216.894868 0003 0018 102
E: 2216.894868 0000 0000 0
E: 2216.911661 0003 002f 0
E: 2216.911661 0003 0035 1155
E: 2216.911661 0003 0036 1143
E: 2216.911661 0003 003a 97
E: 2216.911661 0003 002f 1
E: 2216.911661 0003 0035 978
E: 2216.911661 0003 0036 375
E: 2216.911661 0003 003a 44
E: 2216.911661 0003 0030 180
E: 2216.911661 0003 0034 2
E: 2216.911661 0003 0000 1155
E: 2216.911661 0003 0001 1143
E: 2216.911661 0003 0018 97
E: 2216.911661 0000 0000 0
E: 2216.928328 0003 002f 0
E: 2216.928328 0003 003a 95
E: 2216.928328 0003 002f 1
E: 2216.928328 0003 0035 964
E: 2216.928328 0003 0036 329
E: 2216.928328 0003 003a 45
E: 2216.928328 0003 0034 0
E: 2216.928328 0003 0018 95
E: 2216.928328 0000 0000 0
E: 2216.945278 0003 002f 0
E: 2216.945278 0003 003a 103
E: 2216.945278 0003 002f 1
E: 2216.945278 0003 0035 952
E: 2216.945278 0003 0036 296
E: 2216.945278 0003 003a 46
E: 2216.945278 0003 0030 220
E: 2216.945278 0003 0018 103
E: 2216.945278 0000 0000 0
E: 2216.961697 0003 0035 944
E: 2216.961697 0003 0036 270
E: 2216.961697 0003 003a 41
E: 2216.961697 0003 0030 180
E: 2216.961697 0003 0034 2
E: 2216.961697 0000 0000 0
E: 2216.980206 0003 002f 0
E: 2216.980206 0003 003a 102
E: 2216.980206 0003 002f 1
E: 2216.980206 0003 0035 942
E: 2216.980206 0003 0036 254
E: 2216.980206 0003 003a 39
E: 2216.980206 0003 0030 220
E: 2216.980206 0003 0018 102
E: 2216.980206 0000 0000 0
E: 2216.995479 0003 002f 0
E: 2216.995479 0003 003a 100
E: 2216.995479 0003 002f 1
E: 2216.995479 0003 0035 940
E: 2216.995479 0003 0036 244
E: 2216.995479 0003 003a 37
E: 2216.995479 0003 0034 0
E: 2216.995479 0003 0018 100
E: 2216.995479 0000 0000 0
E: 2217.012171 0003 002f 0
E: 2217.012171 0003 003a 97
E: 2217.012171 0003 002f 1
E: 2217.012171 0003 0036 235
E: 2217.012171 0003 003a 29
E: 2217.012171 0003 0030 180
E: 2217.012171 0003 0034 2
E: 2217.012171 0003 0018 97
E: 2217.012171 0000 0000 0
E: 2217.028552 0003 002f 0
E: 2217.028552 0003 003a 101
E: 2217.028552 0003 0018 101
E: 2217.028552 0000 0000 0
E: 2217.034091 0003 003a 103
E: 2217.034091 0003 0018 103
E: 2217.034091 0000 0000 0
E: 2217.039646 0003 003a 99
E: 2217.039646 0003 0018 99
E: 2217.039646 0000 0000 0
E: 2217.045146 0003 003a 102
E: 2217.045146 0003 0018 102
E: 2217.045146 0000 0000 0
E: 2217.051113 0003 003a 94
E: 2217.051113 0003 002f 1
E: 2217.051113 0003 0039 -1
E: 2217.051113 0001 0145 1
E: 2217.051113 0001 014d 0
E: 2217.051113 0003 0018 94
E: 2217.051113 0000 0000 0
E: 2217.060850 0003 002f 0
E: 2217.060850 0003 003a 100
E: 2217.060850 0003 0018 100
E: 2217.060850 0000 0000 0
E: 2217.077591 0003 003a 101
E: 2217.077591 0003 0018 101
E: 2217.077591 0000 0000 0
E: 2217.094358 0003 003a 103
E: 2217.094358 0003 0018 103
E: 2217.094358 0000 0000 0
E: 2217.111100 0003 003a 101
E: 2217.111100 0003 0018 101
E: 2217.111100 0000 0000 0
E: 2217.127845 0003 003a 99
E: 2217.127845 0003 0018 99
E: 2217.127845 0000 0000 0
E: 2217.144578 0003 003a 103
E: 2217.144578 0003 0018 103
E: 2217.144578 0000 0000 0
E: 2217.161353 0003 003a 97
E: 2217.161353 0003 0018 97
E: 2217.161353 0000 0000 0
E: 2217.179141 0003 003a 101
E: 2217.179141 0003 0018 101
E: 2217.179141 0000 0000 0
E: 2217.194854 0003 003a 97
E: 2217.194854 0003 0018 97
E: 2217.194854 0000 0000 0
E: 2217.211579 0003 003a 103
E: 2217.211579 0003 0018 103
E: 2217.211579 0000 0000 0
E: 2217.228323 0003 003a 102
E: 2217.228323 0003 0018 102
E: 2217.228323 0000 0000 0
E: 2217.245074 0003 003a 101
E: 2217.245074 0003 0018 101
E: 2217.245074 0000 0000 0
E: 2217.261847 0003 003a 100
E: 2217.261847 0003 0018 100
E: 2217.261847 0000 0000 0
E: 2217.278550 0003 003a 105
E: 2217.278550 0003 0018 105
E: 2217.278550 0000 0000 0
E: 2217.301558 0003 003a 102
E: 2217.301558 0003 0018 102
E: 2217.301558 0000 0000 0
E: 2217.308347 0003 003a 101
E: 2217.308347 0003 0018 101
E: 2217.308347 0000 0000 0
E: 2217.315027 0003 003a 100
E: 2217.315027 0003 0018 100
E: 2217.315027 0000 0000 0
E: 2217.322158 0003 003a 101
E: 2217.322158 0003 002f 1
E: 2217.322158 0003 0039 886
E: 2217.322158 0003 0035 1158
E: 2217.322158 0003 0036 677
E: 2217.322158 0003 003a 24
E: 2217.322158 0003 0030 126
E: 2217.322158 0001 0145 0
E: 2217.322158 0001 014d 1
E: 2217.322158 0003 0018 101
E: 2217.322158 0000 0000 0
E: 2217.330404 0003 002f 0
E: 2217.330404 0003 003a 95
E: 2217.330404 0003 002f 1
E: 2217.330404 0003 003a 27
E: 2217.330404 0003 0018 95
E: 2217.330404 0000 0000 0
E: 2217.347158 0003 002f 0
E: 2217.347158 0003 003a 97
E: 2217.347158 0003 002f 1
E: 2217.347158 0003 0035 1157
E: 2217.347158 0003 0036 675
E: 2217.347158 0003 003a 31
E: 2217.347158 0003 0030 180
E: 2217.347158 0003 0018 97
E: 2217.347158 0000 0000 0
E: 2217.363908 0003 002f 0
E: 2217.363908 0003 003a 101
E: 2217.363908 0003 002f 1
E: 2217.363908 0003 0035 1153
E: 2217.363908 0003 0036 669
E: 2217.363908 0003 003a 33
E: 2217.363908 0003 0018 101
E: 2217.363908 0000 0000 0
E: 2217.380639 0003 002f 0
E: 2217.380639 0003 0035 1154
E: 2217.380639 0003 002f 1
E: 2217.380639 0003 0035 1132
E: 2217.380639 0003 0036 631
E: 2217.380639 0003 003a 36
E: 2217.380639 0003 0034 0
E: 2217.380639 0003 0000 1154
E: 2217.380639 0000 0000 0
E: 2217.398637 0003 002f 0
E: 2217.398637 0003 003a 100
E: 2217.398637 0003 002f 1
E: 2217.398637 0003 0035 1058
E: 2217.398637 0003 0036 517
E: 2217.398637 0003 003a 38
E: 2217.398637 0003 0034 2
E: 2217.398637 0003 0018 100
E: 2217.398637 0000 0000 0
E: 2217.414193 0003 002f 0
E: 2217.414193 0003 003a 101
E: 2217.414193 0003 002f 1
E: 2217.414193 0003 0035 1035
E: 2217.414193 0003 0036 449
E: 2217.414193 0003 0030 220
E: 2217.414193 0003 0018 101
E: 2217.414193 0000 0000 0
E: 2217.430528 0003 0035 1015
E: 2217.430528 0003 0036 392
E: 2217.430528 0003 003a 39
E: 2217.430528 0003 0030 180
E: 2217.430528 0000 0000 0
E: 2217.447601 0003 002f 0
E: 2217.447601 0003 003a 96
E: 2217.447601 0003 002f 1
E: 2217.447601 0003 0035 996
E: 2217.447601 0003 0036 338
E: 2217.447601 0003 003a 43
E: 2217.447601 0003 0030 220
E: 2217.447601 0003 0034 0
E: 2217.447601 0003 0018 96
E: 2217.447601 0000 0000 0
E: 2217.464414 0003 002f 0
E: 2217.464414 0003 003a 103
E: 2217.464414 0003 002f 1
E: 2217.464414 0003 0035 986
E: 2217.464414 0003 0036 307
E: 2217.464414 0003 003a 44
E: 2217.464414 0003 0018 103
E: 2217.464414 0000 0000 0
E: 2217.481143 0003 002f 0
E: 2217.481143 0003 003a 99
E: 2217.481143 0003 002f 1
E: 2217.481143 0003 0035 980
E: 2217.481143 0003 0036 287
E: 2217.481143 0003 0034 2
E: 2217.481143 0003 0018 99
E: 2217.481143 0000 0000 0
E: 2217.497862 0003 002f 0
E: 2217.497862 0003 0035 1155
E: 2217.497862 0003 003a 100
E: 2217.497862 0003 002f 1
E: 2217.497862 0003 0035 977
E: 2217.497862 0003 0036 274
E: 2217.497862 0003 0030 180
E: 2217.497862 0003 0000 1155
E: 2217.497862 0003 0018 100
E: 2217.497862 0000 0000 0
E: 2217.514633 0003 002f 0
E: 2217.514633 0003 003a 102
E: 2217.514633 0003 002f 1
E: 2217.514633 0003 0035 974
E: 2217.514633 0003 0036 259
E: 2217.514633 0003 003a 35
E: 2217.514633 0003 0030 126
E: 2217.514633 0003 0018 102
E: 2217.514633 0000 0000 0
E: 2217.530975 0003 002f 0
E: 2217.530975 0003 003a 99
E: 2217.530975 0003 0018 99
E: 2217.530975 0000 0000 0
E: 2217.536508 0003 003a 102
E: 2217.536508 0003 0018 102
E: 2217.536508 0000 0000 0
E: 2217.542098 0003 003a 98
E: 2217.542098 0003 0018 98
E: 2217.542098 0000 0000 0
E: 2217.547645 0003 003a 101
E: 2217.547645 0003 0018 101
E: 2217.547645 0000 0000 0
E: 2217.553215 0003 002f 1
E: 2217.553215 0003 0039 -1
E: 2217.553215 0001 0145 1
E: 2217.553215 0001 014d 0
E: 2217.553215 0000 0000 0
E: 2217.563326 0003 002f 0
E: 2217.563326 0003 003a 98
E: 2217.563326 0003 0018 98
E: 2217.563326 0000 0000 0
E: 2217.580075 0003 003a 100
E: 2217.580075 0003 0018 100
E: 2217.580075 0000 0000 0
E: 2217.597825 0003 003a 99
E: 2217.597825 0003 0030 382
E: 2217.597825 0003 0018 99
E: 2217.597825 0000 0000 0
E: 2217.613542 0003 003a 94
E: 2217.613542 0003 0018 94
E: 2217.613542 0000 0000 0
E: 2217.630289 0003 0035 1156
E: 2217.630289 0003 003a 91
E: 2217.630289 0003 0030 360
E: 2217.630289 0003 0000 1156
E: 2217.630289 0003 0018 91
E: 2217.630289 0000 0000 0
E: 2217.647030 0003 0035 1158
E: 2217.647030 0003 003a 54
E: 2217.647030 0003 0030 286
E: 2217.647030 0003 0034 2
E: 2217.647030 0003 0000 1158
E: 2217.647030 0003 0018 54
E: 2217.647030 0000 0000 0
E: 2217.678904 0003 0039 -1
E: 2217.678904 0001 014a 0
E: 2217.678904 0001 0145 0
E: 2217.678904 0003 0018 0
E: 2217.678904 0000 0000 0
E: 2217.679404 0003 002f 0
E: 2217.679404 0003 0039 -1
E: 2217.679404 0003 002f 1
E: 2217.679404 0003 0039 -1
E: 2217.679404 0003 002f 2
E: 2217.679404 0003 0039 -1
E: 2217.679404 0003 002f 3
E: 2217.679404 0003 0039 -1
E: 2217.679404 0003 002f 4
E: 2217.679404 0003 0039 -1
E: 2217.679404 0003 002f 5
E: 2217.679404 0003 0039 -1
E: 2217.679404 0003 002f 6
E: 2217.679404 0003 0039 -1
E: 2217.679404 0003 002f 7
E: 2217.679404 0003 0039 -1
E: 2217.679404 0003 002f 8
E: 2217.679404 0003 0039 -1
E: 2217.679404 0003 002f 9
E: 2217.679404 0003 0039 -1
